ch-100-importing.utf8.md
…
Expanded, specialized functions for specific data types

Enhances your data frame by converting it into a “tibble”

Observe the output from the “tibble” data frame. What’s different?

library(readr)

url <- paste0("https://opendata.arcgis.com/datasets/", 
              "c15a39a8a00e48b1a60c826c8a2cb3e0_0.csv")

read_csv(url)

## # A tibble: 200 x 22
##        X     Y property_address property_zip case_number property_owner_~
##    <dbl> <dbl> <chr>            <chr>        <chr>       <chr>           
##  1 -76.1  43.0 416 Cannon St    "\"13205\""  L00472      Sylvester Fair  
##  2 -76.2  43.1 1106 Carbon St   "\"13208\""  L00477      Giovanni Canzano
##  3 -76.1  43.0 1815-17 Midland~ "\"13205\""  L00495      Michael Hemmer  
##  4 -76.2  43.1 1116 Carbon St ~ "\"13208\""  L00594      Lam Nguyen      
##  5 -76.1  43.0 159-61 Fage Ave  "\"13205\""  L00374      Jaulonda Smith  
##  6 -76.2  43.1 3137 Grant Blvd~ "\"13208\""  L00364      Jeffrey Fenocchi
##  7 -76.2  43.0 1629-31 Midland~ "\"13205\""  L00065      Maurice Krohl   
##  8 -76.2  43.1 3137 Grant Blvd~ "\"13208\""  L00471      Jeffrey Fenocchi
##  9 -76.2  43.0 122 Bishop Ave   "\"13207\""  L00142      Webster Ballant~
## 10 -76.2  43.1 1012 Wolf St     "\"13208\""  L00035      Michael Lembo   
## # ... with 190 more rows, and 16 more variables: case_open_date <dttm>,
## #   nature_of_complaint <chr>, case_type <chr>, case_status <chr>,
## #   property_id <chr>, vacant_property <chr>,
## #   property_owner_address <chr>, property_owner_city <chr>,
## #   property_owner_state <chr>, property_owner_zip <chr>,
## #   neighborhood <chr>, identifier <chr>, long <dbl>, lat <dbl>,
## #   TNT_NAME <chr>, ObjectId <dbl>
…
