ch-181-logicals.utf8.md
…
print(index)                            # Print row numbers that are TRUE

##  [1]   8   9  12  13  14  25  26  27  35  38  39  41  43  44  45  46  49
## [18]  58  59  60  67  68  69  70  71  75  76  80  81  83  84  85  87  88
## [35]  89  91  92  93  94  95  98  99 100

Filter Matching Rows: Using row numbers assigned to object index, we can filter:

Rows which return FALSE vis-à-vis our conditions

Rows which return TRUE vis-à-vis our conditions

atl[index, ]            # Keep rows with TRUE (more than 1K in poverty)

## # A tibble: 43 x 4
##    County Area_Name                       Total_Population Pop_below_pover~
##     <dbl> <chr>                                      <dbl>            <dbl>
##  1  13045 Census Tract 9107.02, Carroll ~             8052             1309
##  2  13045 Census Tract 9107.03, Carroll ~             8743             1681
##  3  13057 Census Tract 904, Cherokee Cou~            10088             1937
##  4  13057 Census Tract 906.02, Cherokee ~             7952             1339
##  5  13057 Census Tract 907.01, Cherokee ~            20202             1963
##  6  13067 Census Tract 304.05, Cobb Coun~             6020             1058
##  7  13067 Census Tract 304.13, Cobb Coun~             6215             1675
##  8  13067 Census Tract 311.01, Cobb Coun~             5255             1531
##  9  13089 Census Tract 213.08, DeKalb Co~             4148             1047
## 10  13089 Census Tract 220.04, DeKalb Co~             5794             1131
## # ... with 33 more rows

atl[-index, ]           # Remove rows with TRUE (less than 1K in poverty)

## # A tibble: 57 x 4
##    County Area_Name                       Total_Population Pop_below_pover~
##     <dbl> <chr>                                      <dbl>            <dbl>
##  1  13013 Census Tract 1801.04, Barrow C~             2032              544
##  2  13013 Census Tract 1801.06, Barrow C~             2773              462
##  3  13013 Census Tract 1803.02, Barrow C~             5434              774
##  4  13013 Census Tract 1805.03, Barrow C~             4960              348
##  5  13015 Census Tract 9603, Bartow Coun~             6714              893
##  6  13015 Census Tract 9604.01, Bartow C~            10043              962
##  7  13015 Census Tract 9604.02, Bartow C~             8758              838
##  8  13045 Census Tract 9108, Carroll Cou~             4188              619
##  9  13045 Census Tract 9110, Carroll Cou~             6083              916
## 10  13057 Census Tract 910.06, Cherokee ~             4951              212
## # ... with 47 more rows
…
