ch-180-vectors.utf8.md
…
Bare Variable Names: Once the dataset is named, you need not type it again.

R recognizes when the data frame has been called

Therefore, variables need only be named, without the dataset$x notation

names(parks)

## [1] "Year"       "Region"     "County"     "Facility"   "Attendance"

parks %>%                             # Call dataset object name
  select(Year, Region, Attendance)    # Use bare variable names

## # A tibble: 3,764 x 3
##     Year Region       Attendance
##    <dbl> <chr>             <dbl>
##  1  2018 Finger Lakes     291507
##  2  2017 Finger Lakes     311260
##  3  2016 Finger Lakes     318309
##  4  2015 Finger Lakes     266112
##  5  2014 Finger Lakes     210543
##  6  2013 Finger Lakes     292200
##  7  2012 Finger Lakes     162986
##  8  2011 Finger Lakes     172579
##  9  2010 Finger Lakes     205460
## 10  2009 Finger Lakes     184372
## # ... with 3,754 more rows
…
Suppose we group by one variable with 5 categories and one with 10

Total permutations equals 5 * 10, or 50 groups

Note, also, that not grouping on variables will drop ungrouped variables

In other words, grouping by X, not Y, means Y is then excluded

parks %>%
  group_by(Year, Region) %>%              # Group on variables "Year", "Region"
  summarize(Mean = mean(Attendance),
            Median = median(Attendance))

## # A tibble: 176 x 4
## # Groups:   Year [16]
##     Year Region           Mean  Median
##    <dbl> <chr>           <dbl>   <dbl>
##  1  2003 Allegany      351875  192079 
##  2  2003 Central        88790.  41128.
##  3  2003 Finger Lakes   93691.  42539 
##  4  2003 Genesee        92704.  15320 
##  5  2003 Long Island   624115. 196520 
##  6  2003 New York City 332013. 118444 
##  7  2003 Niagara       536725.  93284 
##  8  2003 Palisades     205155.  20650.
##  9  2003 Saratoga      100925.  48230 
## 10  2003 Taconic       161300.  93131 
## # ... with 166 more rows
…
