p-070-data-verbs.utf8.md
…
##    weight group
## 1    4.17  ctrl
## 2    5.58  ctrl
## 3    5.18  ctrl
## 4    6.11  ctrl
## 5    4.50  ctrl
## 6    4.61  ctrl
## 7    5.17  ctrl
## 8    4.53  ctrl
## 9    5.33  ctrl
## 10   5.14  ctrl

The tibble will print the first few rows and columns of a dataset, and includes dataset dimensions and vector classes:

## # A tibble: 30 x 2
##    weight group
##     <dbl> <fct>
##  1   4.17 ctrl 
##  2   5.58 ctrl 
##  3   5.18 ctrl 
##  4   6.11 ctrl 
##  5   4.5  ctrl 
##  6   4.61 ctrl 
##  7   5.17 ctrl 
##  8   4.53 ctrl 
##  9   5.33 ctrl 
## 10   5.14 ctrl 
## # ... with 20 more rows
…
